{
  "data": [
    {
      "id": "0bef929f-07b9-4a45-95e4-bb73cc4d03a9",
      "name": "Andeluna Altitud",
      "description": "Vino con tonos acidos y trasfondo amaderado",
      "price": "24000.00",
      "stock": 13,
      "imgUrl": "https://http2.mlstatic.com/D_NQ_NP_718923-MLA50247409003_062022-O.webp",
      "store": "Enotek Vinos",
      "isActive": true,
      "category": {
        "categoryId": "6835eee5-fa28-4136-9dfb-9df777da299e",
        "name": "Merlot"
      }
    },
    {
      "id": "6179bb81-a417-4341-9bad-cc21491ed032",
      "name": "Saint Felicien Cabernet",
      "description": "Vino con tonos dulces y primera impresi칩n contundente",
      "price": "30000.00",
      "stock": 13,
      "imgUrl": "https://http2.mlstatic.com/D_NQ_NP_772424-MLU74143206037_012024-O.webp",
      "store": "Vinidex Vinos",
      "isActive": true,
      "category": {
        "categoryId": "6835eee5-fa28-4136-9dfb-9df777da299e",
        "name": "Merlot"
      }
    },
    {
      "id": "04293884-54e4-4fd1-8267-4bd290e7f63e",
      "name": "Perro Callejero",
      "description": "Vino con tonos dulces y primera impresi칩n contundente",
      "price": "30000.00",
      "stock": 13,
      "imgUrl": "https://http2.mlstatic.com/D_NQ_NP_809204-MLA54076120376_022023-O.webp",
      "store": "Vinidex Vinos",
      "isActive": true,
      "category": {
        "categoryId": "6835eee5-fa28-4136-9dfb-9df777da299e",
        "name": "Merlot"
      }
    },
    {
      "id": "21436ad3-6163-42f1-b5de-c8654e95e0bb",
      "name": "alma mora",
      "description": "vino",
      "price": "1000.00",
      "stock": 1,
      "imgUrl": "https://res.cloudinary.com/dqclryqge/image/upload/v1722276592/ctrl4ozp18urt0mc6qnx.jpg",
      "store": "finca las moras",
      "isActive": true,
      "category": {
        "categoryId": "6835eee5-fa28-4136-9dfb-9df777da299e",
        "name": "Merlot"
      }
    },
    {
      "id": "e4351f61-a157-40af-82fb-cbc7ecaaf96c",
      "name": "Famiglia",
      "description": "Vino con tonos amaderado y primera impresi칩n acido",
      "price": "30000.00",
      "stock": 13,
      "imgUrl": "https://http2.mlstatic.com/D_NQ_NP_839776-MLA47174827666_082021-O.webp",
      "store": "Vinotek Vinos",
      "isActive": true,
      "category": {
        "categoryId": "db63876d-9158-4ed3-8031-01cbea5b06da",
        "name": "Malbec"
      }
    },
    {
      "id": "470699b2-41cb-4c28-8cfc-f3f1a8311d8a",
      "name": "Zapata",
      "description": "zapata",
      "price": "10000.00",
      "stock": 1,
      "imgUrl": "https://res.cloudinary.com/dqclryqge/image/upload/v1722526452/a4arscylec1cfz5mropj.jpg",
      "store": "Zapata",
      "isActive": true,
      "category": {
        "categoryId": "db63876d-9158-4ed3-8031-01cbea5b06da",
        "name": "Malbec"
      }
    },
    {
      "id": "7c32219f-ec65-4fd3-b461-d5adb622b897",
      "name": "Angelica",
      "description": "Angelica Zapata",
      "price": "10000.00",
      "stock": 10,
      "imgUrl": "https://res.cloudinary.com/dqclryqge/image/upload/v1722526608/yhfcstjwearx1poycpol.jpg",
      "store": "bodega",
      "isActive": true,
      "category": {
        "categoryId": "7e77a49e-7980-457c-bd8c-d07eca46a5c1",
        "name": "Vermut"
      }
    },
    {
      "id": "b06a48b5-f93d-4517-a2ec-46b6c07fab50",
      "name": "Catena",
      "description": "catena zapata",
      "price": "125000.00",
      "stock": 1,
      "imgUrl": "https://res.cloudinary.com/dqclryqge/image/upload/v1722527194/qo8w8g1tebxuygegwisq.jpg",
      "store": "Catena Zapata",
      "isActive": true,
      "category": {
        "categoryId": "7e77a49e-7980-457c-bd8c-d07eca46a5c1",
        "name": "Vermut"
      }
    },
    {
      "id": "d30ec716-2e64-4de3-9e12-2e26f8a00db0",
      "name": "Vino de Guarda",
      "description": "Barrica 3 a침os",
      "price": "23000.00",
      "stock": 1,
      "imgUrl": "https://res.cloudinary.com/dqclryqge/image/upload/v1722527511/ymzmuog4kyprspy0mfhb.jpg",
      "store": "botega veneta",
      "isActive": true,
      "category": {
        "categoryId": "db63876d-9158-4ed3-8031-01cbea5b06da",
        "name": "Malbec"
      }
    },
    {
      "id": "57a72087-4516-4e53-b211-80f98f7a19f5",
      "name": "Wine",
      "description": "Wine wine",
      "price": "10.00",
      "stock": 1,
      "imgUrl": "https://res.cloudinary.com/dqclryqge/image/upload/v1722527589/asgrxaadqufjn9jd0bih.jpg",
      "store": "bodega",
      "isActive": true,
      "category": {
        "categoryId": "a06667f1-a80e-463b-b839-824460a3d610",
        "name": "Bonarda"
      }
    }
  ],
  "total": 13,
  "page": 1,
  "lastPage": 2
}
